<?xml version="1.0" encoding="UTF-8" standalone="no"?>
<svg
   xmlns:dc="http://purl.org/dc/elements/1.1/"
   xmlns:cc="http://creativecommons.org/ns#"
   xmlns:rdf="http://www.w3.org/1999/02/22-rdf-syntax-ns#"
   xmlns:svg="http://www.w3.org/2000/svg"
   xmlns="http://www.w3.org/2000/svg"
   id="svg6"
   version="1.1"
   viewBox="0 0 83 52"
   class="header__logo-image">
  <metadata
     id="metadata12">
    <rdf:RDF>
      <cc:Work
         rdf:about="">
        <dc:format>image/svg+xml</dc:format>
        <dc:type
           rdf:resource="http://purl.org/dc/dcmitype/StillImage" />
      </cc:Work>
    </rdf:RDF>
  </metadata>
  <defs
     id="defs10" />
  <path
     id="path2"
     fill="#F60"
     d="M41.3 65.5C18.5 65.5 0 47.1 0 24.3 0 1.6 18.5-16.9 41.3-16.9c22.7 0 41.2 18.5 41.2 41.2 0 22.8-18.5 41.2-41.2 41.2z" />
  <path
     id="path4"
     fill="#FFF"
     d="M19.8 24.8c.2 0 .3 0 .5.1.1.1.1.3.2.4v4.3c.5-.2 1-.3 1.7-.5.6-.1 1.3-.1 2.1-.1 1.4 0 2.6.1 3.6.4.9.3 1.7.8 2.3 1.3.6.6 1.1 1.3 1.4 2.2.2.8.4 1.8.4 2.9 0 1.1-.1 2.1-.4 2.9-.3.9-.7 1.6-1.3 2.1-.6.6-1.4 1-2.4 1.3-.9.3-2.1.5-3.5.5-.8 0-1.5-.1-2.2-.3-.6-.1-1.2-.3-1.7-.5l-.1.4c0 .2 0 .3-.1.3H17c-.1 0-.3 0-.4-.1-.2-.2-.2-.3-.2-.5V25.4c0-.2 0-.3.2-.5.1-.1.2-.1.4-.1zm45.3 13.6c.1 0 .2.1.3.2l1 1.3c.2.2.2.2.2.3.4.4-.3.9-.3.9-.5.3-.8.4-1.1.6-.4.2-.9.4-1.3.5-.4.1-.9.2-1.4.3h-1.8c-1.6 0-2.9-.1-3.8-.5-1-.4-1.8-.9-2.3-1.5-.5-.6-.9-1.3-1.1-2.1-.2-.8-.3-1.7-.3-2.6 0-.9.1-1.8.3-2.6.2-.8.6-1.6 1.1-2.2.6-.6 1.3-1.1 2.3-1.5 1-.3 2.2-.5 3.7-.5 1.1 0 2 .1 2.7.3.7.2 1.3.5 1.8.8.5.4.9.8 1.1 1.3.3.5.5 1 .6 1.6.1.6.2 1.2.2 1.9V37h-7.6c-.4 0-.4-.3-.4-.3v-1.9s.1-.4.4-.4h4c0-.3-.1-.7-.2-1 0-.3-.2-.6-.4-.8-.2-.2-.5-.4-.8-.5-.4-.2-.9-.2-1.5-.2h-.3c-.5 0-.9.1-1.2.2-.5.1-.8.3-1.1.5-.2.2-.4.5-.6.8-.1.3-.2.6-.3 1 0 0-.1 1.5 0 2.6.1.4.2.8.3 1.1.2.3.4.6.7.8.3.2.6.4 1 .5.5.2 1 .2 1.7.2h.2c.5 0 .8 0 1.1-.1.4 0 .7-.1 1-.2.3-.1.6-.2.8-.3.2-.2.5-.3.8-.5.1-.1.3-.2.4-.2zM36.6 24.7c.1 0 .3 0 .4.2.1.1.2.2.2.4v13.6h.4c.1 0 .3 0 .4.2.1.1.2.2.2.4v2.4c0 .1-.1.3-.2.4-.1.1-.3.2-.4.2h-3.7c-.2 0-.4-.1-.5-.2-.1-.2-.2-.3-.2-.5V25.3c0-.2 0-.3.2-.4.1-.2.2-.2.4-.2h2.8zm5.7 4.3c.2 0 .4.1.5.2.1.1.2.2.2.4v7.8c0 .3.1.7.3 1 .2.2.5.4.8.6.4.2.9.2 1.6.2.6 0 1.1 0 1.5-.2.4-.2.6-.4.8-.7.2-.2.3-.6.3-1s.1-.8.1-1.3v-6.4c0-.2 0-.3.1-.4.2-.1.3-.2.5-.2h2.4c.1 0 .3.1.4.2.1.1.2.2.2.4V36c0 1.1-.1 2.1-.3 2.9-.2.9-.5 1.5-1 2-.4.6-1.1.9-1.9 1.2-.8.2-1.9.4-3.1.4-1.3 0-2.4-.2-3.2-.4-.8-.3-1.5-.6-2-1.2-.5-.5-.8-1.1-1-2-.2-.8-.3-1.8-.3-2.9v-6.4c0-.2.1-.3.2-.4.2-.1.3-.2.5-.2h2.4zm-18 3.2c-.7 0-1.2.1-1.7.2-.4.2-.8.5-1.1.8-.2.3-.4.7-.5 1.2-.2.4-.2.9-.2 1.5 0 .5 0 1 .2 1.5.1.4.3.8.5 1.1.3.3.7.6 1.1.8.5.1 1 .2 1.7.2s1.3-.1 1.8-.2c.4-.2.8-.5 1.1-.8.2-.3.4-.7.5-1.1.1-.5.2-1 .2-1.5 0-.6-.1-1.1-.2-1.5-.1-.5-.3-.9-.5-1.2-.3-.3-.7-.6-1.1-.8-.5-.1-1.1-.2-1.8-.2zm-.8-22.1h1.8c.6.1 1.1.2 1.5.3.4.1.9.3 1.3.5s.6.3 1.1.7c0 0 .7.4.3.9 0 .1 0 .1-.2.3l-1 1.3c-.1.1-.2.2-.4.2-.1 0-.3 0-.4-.1-.3-.2-1.5-1.2-4-1.2-1.8 0-4.3 1.1-4.3 3.6s2.3 3.6 4.3 3.6c2.7 0 3.7-1 4-1.2h.1c.1-.1.2-.1.3-.1.2 0 .3.1.4.2l1 1.3c.2.2.2.2.2.3.4.5-.3.9-.3.9-.5.4-.7.5-1.1.7-.4.2-.9.4-1.3.5-.4.1-.9.2-1.5.3h-1.8c-1.6 0-2.8-.2-3.8-.5-1-.4-4.2-2-4.2-6.1 0-4 3.2-5.5 4.2-5.9 1-.3 2.2-.5 3.8-.5zm14.1 0c1.3 0 2.4.1 3.4.4.9.3 1.6.7 2.2 1.3.6.5 1.1 1.2 1.3 2 .3.8.4 1.7.4 2.8 0 1-.1 2-.4 2.8-.2.8-.7 1.5-1.3 2-.6.6-1.3 1-2.2 1.3-1 .3-2.1.4-3.4.4-1.3 0-2.5-.1-3.4-.4-.9-.3-1.7-.7-2.2-1.3-.6-.5-1.1-1.2-1.3-2-.3-.8-.4-1.8-.4-2.8 0-1.1.1-2 .4-2.8.2-.8.7-1.5 1.3-2 .5-.6 1.3-1 2.2-1.3.9-.3 2.1-.4 3.4-.4zm15.9 0c1.3 0 2.5.1 3.4.4.9.3 1.7.7 2.3 1.3.5.5 1 1.2 1.2 2 .3.8.4 1.7.4 2.8 0 1-.1 2-.4 2.8-.2.8-.7 1.5-1.2 2-.6.6-1.4 1-2.3 1.3-.8.2-1.8.4-3 .4h-.4c-1.3 0-2.4-.1-3.4-.4-.9-.3-1.6-.7-2.2-1.3-.6-.5-1-1.2-1.3-2-.3-.8-.4-1.8-.4-2.8 0-1.1.1-2 .4-2.8.3-.8.7-1.5 1.3-2 .6-.6 1.3-1 2.2-1.3 1-.3 2.1-.4 3.4-.4zm11.8-4c.2 0 .3 0 .5.2.1.1.1.2.1.3v13h.4c.2.1.3.1.4.2.1.1.2.2.2.4v2.3c0 .2-.1.3-.2.4-.1.1-.2.2-.4.2h-3.5c-.2 0-.4-.1-.5-.2-.1-.1-.2-.3-.2-.4V6.6c0-.1.1-.2.2-.3.1-.2.2-.2.4-.2h2.6zm-27.7 7c-.7 0-1.2.1-1.7.3-.4.1-.8.4-1 .7-.3.3-.5.7-.6 1.1-.1.5-.1.9-.1 1.5 0 .5 0 1 .1 1.4.1.5.3.9.6 1.2.2.3.6.5 1 .7.5.2 1 .3 1.7.3s1.2-.1 1.7-.3c.4-.2.7-.4 1-.7.3-.3.5-.7.6-1.2.1-.4.1-.9.1-1.4 0-.6 0-1-.1-1.5-.1-.4-.3-.8-.6-1.1-.3-.3-.6-.6-1-.7-.5-.2-1-.3-1.7-.3zm15.9 0c-.7 0-1.2.1-1.6.3-.5.1-.8.4-1.1.7-.3.3-.4.7-.5 1.1-.1.5-.2.9-.2 1.5 0 .5.1 1 .2 1.4.1.5.2.9.5 1.2.3.3.6.5 1.1.7.4.2.9.3 1.6.3.7 0 1.2-.1 1.7-.3.4-.2.8-.4 1-.7.3-.3.5-.7.6-1.2.1-.4.1-.9.1-1.4 0-.6 0-1-.1-1.5-.1-.4-.3-.8-.6-1.1-.2-.3-.6-.6-1-.7-.5-.2-1-.3-1.7-.3z" />
</svg>
